{
  "projects": {
    "admin-portal": {
      "tags": []
    },
    "admin-portal-e2e": {
      "tags": []
    },
    "platform-common": {
      "tags": []
    },
    "platform-core": {
      "tags": []
    },
    "security-feature": {
      "tags": []
    },
    "buyer-portal": {
      "tags": []
    },
    "buyer-portal-e2e": {
      "tags": []
    }
  }
}
